Introducción al análisis de redes con R
…
Lo que vemos en esta red es que hay un conjunto elevado de ocupaciones que tienen relativamente pocas conexiones entre ellas, mientras que existe un puñado de ocupaciones con muchos grados, incluso 1 tiene más de 40 vínculos. Esta es una señal de que esta red no se comporta como se espera en una red aleatoria (randm networks): existen algunas relaciones que no podrían, en principio, haber surgido del azar.

Ven ese pequeño punto en 0? Son las dos ocupaciones que tenían solo una conexión consigo mismas y que removimos esas aristas con simplify. Vamos a filtrarla

grafo <- grafo %>% activate(nodes) %>% filter(!grado == 0)

Perfecto. Ahora prestemos atención a cuáles son las ocupaciones con mayor cantidad de aristas:

grafo %>% activate(nodes) %>% arrange(desc(grado)) %>% as_tibble()

## # A tibble: 96 x 4
##    name    nodo  Desc                                                grado
##    <chr>   <chr> <chr>                                               <dbl>
##  1 11-9190 nodo  Miscellaneous Managers                                 32
##  2 37-2010 nodo  Building Cleaning Workers                              28
##  3 53-3030 nodo  Driver/Sales Workers and Truck Drivers                 24
##  4 51-9190 nodo  Miscellaneous Production Workers                       21
##  5 43-6010 nodo  Secretaries and Administrative Assistants              17
##  6 53-7060 nodo  Laborers and Material Movers, Hand                     16
##  7 41-2030 nodo  Retail Salespersons                                    15
##  8 35-1010 nodo  Supervisors of Food Preparation and Serving Workers    14
##  9 47-2060 nodo  Construction Laborers                                  13
## 10 41-2010 nodo  Cashiers                                               12
## # ... with 86 more rows
…
distancias <- shortest.paths(grafo)

Esta matriz podemos convertirla en algo que podemos trabajar con lo que ya sabemos de tidyverse (y alguna función nueva). Para empezar, as_tibble() ya la conocen: convierte a un objeto en un tibble, una versión mejorada de los data.frame. Dentro de esa función usamos rownames=NA, para que se quede con los nombres de las filas de la matriz, que tiene información sobre nuestros nodos. Después usamos rownames_to_column(), función que copia los nombres de las filas y las pega en una nueva columna que se llama rownames, que pone en la primera posición. Luego ya es terreno conocido: pivot_longer() para que pase a formato largo y rename() para emprolijar los nombres de las columnas. Además, ordenamos de mayor a menor según la distancia

distancias %>% 
  as_tibble(rownames = NA) %>%
  rownames_to_column() %>% 
  pivot_longer(.,cols =2:ncol(.)) %>% 
  rename(nodo1=rowname,
         nodo2=name,
         distancia=value) %>% 
  arrange(desc(distancia))

## # A tibble: 9,216 x 3
##    nodo1   nodo2   distancia
##    <chr>   <chr>       <dbl>
##  1 11-9010 25-3000         6
##  2 11-9010 25-2050         6
##  3 15-1120 39-9020         6
##  4 15-1120 51-6050         6
##  5 15-1130 39-9020         6
##  6 15-1130 51-6050         6
##  7 25-2030 51-6050         6
##  8 25-3000 11-9010         6
##  9 25-3000 45-4020         6
## 10 25-3000 47-2070         6
## # ... with 9,206 more rows
…
